{
    "Fx6iElwpc9APaSn0NLrB.js": "app\/modules\/settings\/resources\/assets\/js\/settings.company.info.js",
    "JpONvoAg4FSDGhCBVLcf.js": "app\/modules\/settings\/resources\/assets\/js\/settings.customfields.js",
    "wFevKzTOsJ81daGkjoLS.js": "app\/modules\/settings\/resources\/assets\/js\/settings.system.js"
}